{
  "openapi": "3.0.3",
  "info": {
    "version": "1.0.0",
    "title": "Annotation exempel api",
    "description": "Annotation exempel api är ett påhittat api som använder sig av annotations för att skapa metadata för DCAT-AP-SE.",
    "x-dcat": {
      "dcat-dataset": {
        "about": "https://jobstream.api.jobtechdev.se/#Job_Stream",
        "title-sv": "Job Stream", 
        "title-en": "Job Stream",       
        "description-sv": "JobStream ger tillgång till alla jobbannonser som är publicerade i Platsbanken, inklusive realtidsinformation om förändringar som sker runt eller i dessa annonser, t.ex. publiceringar, avpubliceringar eller uppdateringar av annonstexter. Det ger möjlighet att ha en egen kopia av alla annonser som publiceras via Arbetsförmedlingen. Det går även att filtrera på yrkes- eller geografiska begrepp. Det kan användas för att skapa en egen sökmotor, eller för olika typer av analys. Annonserna kan hållas uppdaterade via JobStream så att ändringar sparas i den egna databasen, och så att avpublicerade annonser kan hanteras.",        
        "description-en": "JobStream provides access to all job advertisements, published on the Swedish Public Employment Service’s Job board (Platsbanken), including real-time information, related to changes, regarding these advertisements, e.g. publishing or deleting of job posts, or updates of job ads texts.By using this API, it gives the opportunity to make a copy of all the job advertisements, published on the Swedish Public Employment Service’s Job board (Platsbanken). It is also possible to filter by professions and/or themes of geography. Furthermore, it can be used to create an own search engine, or to conduct different types of analysis. The advertisements can be kept up-to-date via JobStream, while changes are saved in the own database, including expired and/or depublished job advertisements.",           
        "publisher": {
          "about": "https://www.arbetsformedlingen.se#publisherJob_Stream",
          "name": "Arbetsförmedlingen",
          "type": "http://purl.org/adms/publishertype/NationalAuthority",
          "homepage": "www.arbetsformedlingen.se"         
        },

        "contactPoint": {
          "about": "https://www.arbetsformedlingen.se/#contactJob_Stream",
          "name": "Arbetsförmedlingen",
          "type": "Organization",
          "email": "opendata@arbetsformedlingen.se",
          "address": "Elektrogatan 4; 171 54; Solna; Sverige"          
        },
        "keyword-sv": "jobbannonser; annonser; arbetsmarknad; platsbanken; kompetens",   
        "keyword-en": "job ads; vacancies; labour market; platsbanken; skills", 
        "theme": "GOVE",        
        "spatialUrl": "https://www.geonames.org/6695072/european-union.html",        
        "landingPage": "https://data.arbetsformedlingen.se/data/job-stream/",
        "licenseurl": "http://creativecommons.org/publicdomain/zero/1.0/",
                           
      
        "accessRights": "Public",        
       
        "distribution": {
          "about": "https://jobstream.api.jobtechdev.se/#distributionJob_Stream",
          "title-sv": "Utforska JobStream",
          "title-en" : "Explore JobStream",       
          "description-sv": "Utforska APIet JobStream via Swaggergränsnitt",
          "description-en": "Explore the JobStream API via Swagger UI",
          "accessURL": "https://jobstream.api.jobtechdev.se",                
          "formatMedia": "application/json", 
          "accessService": "https://jobstream.api.jobtechdev.se/#dataserviceJob_Stream", 
          "status": "Completed",
          "availability": "Stable",
          "licenseurl": "http://creativecommons.org/publicdomain/zero/1.0/",
          "conformsTo": {
            "about": "https://jobstream.api.jobtechdev.se/swagger.json",
            "title-sv": "Swagger gränsnitt",
            "description-sv": "Swagger gränsnitt för Job Stream API"
           }, 
          "page": {
            "about": "https://gitlab.com/arbetsformedlingen/job-ads/JobStream/jobstream-api/-/blob/main/docs/GettingStartedJobStreamSE.md",
            "title-sv": "Kom igång med API:et",
            "title-en": "Get started",
            "description-sv": "Dokumentation för att komma igång med APIet",
            "description-en": "Documentation for using the API"
          }            
        }       
      },
      "dcat-dataservice": {
        "about": "https://jobstream.api.jobtechdev.se/#dataserviceJob_Stream",
        "title-sv": "Datatjänst jobstream",
        "description-sv": "API för jobbannonser publicerade i Arbetsförmedlingens tjänst Platsbanken",
        "title-en": "Data service jobstream",
        "description-en": "API for job ads published in Arbetsförmedlingens Platsbanken",
        "endpointURL": "https://jobstream.api.jobtechdev.se",
        "endpointDescription":"https://jobstream.api.jobtechdev.se",
        
        "publisher": {
          "about": "https://jobstream.api.jobtechdev.se/#publisherJob_Stream2",
          "name": "Arbetsförmedlingen",
          "type": "NationalAuthority",
          "homepage": "https://arbetsformedlingen.se/om-webbplatsen/apier-och-oppna-data",
          "mbox": "opendata@arbetsformedlingen.se"
        },
        "contactPoint": {
          "about": "https://www.arbetsformedlingen.se/#contactPointJob_Stream2",
          "type": "Organization",
          "name": "Arbetsförmedlingen",
          "email": "opendata@arbetsformedlingen.se",         
          "address": "Elektrogatan 4; 171 54; Solna; Sverige"
        },
        "type": "REST",
        "keyword-sv": "datatjänst",
        "theme": "http://publications.europa.eu/resource/authority/data-theme/GOVE",
       
        "servesDataset": "https://jobstream.api.jobtechdev.se/#datasetJob_Stream",
        "licenseurl": "http://creativecommons.org/publicdomain/zero/1.0/",
        "accessRights": "Public",
        "landingPage": "https://data.arbetsformedlingen.se/data/job-stream/"
        
      }
           
    }
  },
  "paths": {
    "/users": {
      "get": {
        "description": "Fake API description. Only in this file to show where the rest of the api definition would be located.",
        "responses": {
          "200": {
            "description": "Fake 200 response"
          }
        }
      }
    }
  }
}
