{
  "openapi": "3.0.3",
  "info": {
    "version": "1.0.0",
    "title": "Annotation exempel api",
    "description": "Annotation exempel api är ett påhittat api som använder sig av annotations för att skapa metadata för DCAT-AP-SE.",
    "x-dcat": {
      "dcat-dataset": {
        "about": "https://jobsearch.api.jobtechdev.se/#datasetPlatsannonser",
        "title-sv": "Platsannonser",
        "title-en": "Job Ads",
        "description-sv": "",
        "description-en": "",
        "publisher": {
          "about": "https://arbetsformedlingen.se/#publisherPlatsannonser",
          "name": "Arbetsförmedlingen",
          "type": "http://purl.org/adms/publishertype/NationalAuthority",
          "homepage": "www.arbetsformedlingen.se"         
        },
                
        "contactPoint": {
          "about": "https://www.arbetsformedlingen.se.se/#contactPlatsannonser",
          "name": "Arbetsförmedlingen",
          "type": "Organization",
          "email": "opendata@arbetsformedlingen.se",
          "address": "Elektrogatan 4; 171 54; Solna; Sverige",
          "phone": "1234567"
        },
        "keyword-sv": "jobbannonser; annonser; arbetsmarknad; platsbanken; kompetens",   
        "keyword-en": "job ads; vacancies; labour market; platsbanken; skills", 
        "theme": "GOVE",
        "issued": "2021-03-05",        
        "spatialUrl": "https://www.geonames.org/6695072/european-union.html",
        "versionInfo": "version 1.30.5",        
        "landingPage": "https://arbetsformedlingen.se/om-webbplatsen/apier-och-oppna-data",                             
        "accessRights": "Public",        
        "page": {
          "about": "https://jobtechdev.se/sv/components/jobsearch",
          "title-sv": "Jobsearch API",
          "description-sv": "Kort beskrivning av Jobsearch API"
        },
        "distribution": {
          "about": "https://jobsearch.api.jobtechdev.se/#distributionPlatsannonser",
          "title-sv": "Utforska Job Search API",
          "title-en" : "Explore Job Search API",       
          "description-sv": "JobSearch möjliggör att söka bland Arbetsförmedlingens platsannonser på olika sätt. Dels med fritextsökning, men även med strukturerade sökbegrepp baserade på till exempel yrken eller geografi. API:et JobSearch gör det enkelt att skapa en egen söktjänst i appar eller webbsidor där sökningen sker mot JobSearch och sökresultatet kommer tillbaka i lättanvänt json-format.",
          "description-en":"The API JobSearch makes it possible to search among the Swedish Public Employment Service's job advertisements in different ways. It provides information through free text search, but also through structured search terms, based on, for example, professions or themes of geography. The API JobSearch makes it easier to create own search engine tool in apps and/or webpages, when the search process goes through JobSearch, and the search result is returning in an easy-to-use json format.",
          "accessURL": "https://jobsearch.api.jobtechdev.se/",                 
          "formatMedia": "application/json",           
          "accessService": "https://jobsearch.api.jobtechdev.se/#dataservicePlatsannonser",        
          
          
          "status": "Completed",
          "availability": "Stable",
          "licenseurl": "http://creativecommons.org/publicdomain/zero/1.0/",       
                    
          "conformsTo": {
            "about": "https://jobsearch.api.jobtechdev.se/swagger.json",
            "title-sv": "Swagger gränsnitt",
            "description-sv": "Swagger gränsnitt för Job Search API"
          },
          "page": {
          "about": "https://gitlab.com/arbetsformedlingen/job-ads/jobsearch-apis/-/blob/main/docs/GettingStartedJobSearchSE.md",
          "title-sv": "Kom igång med API:et",
          "title-en": "Get Started",
          "description-sv": "Kom igång med APIet",
          "description-en": "Get started"
           }            
        },

        "distribution2": {
          "about": "https://jobstream.api.jobtechdev.se/#distributionJob_Stream",
          "title-sv": "Utforska JobStream",
          "title-en" : "Explore JobStream",       
          "description-sv": "Utforska APIet JobStream via Swaggergränsnitt",
          "description-en": "Explore the JobStream API via Swagger UI",
          "accessURL": "https://jobstream.api.jobtechdev.se",                
          "formatMedia": "application/json", 
          "accessService": "https://jobstream.api.jobtechdev.se/#dataserviceJob_Stream", 
          "status": "Completed",
          "availability": "Stable",
          "licenseurl": "http://creativecommons.org/publicdomain/zero/1.0/",
          "conformsTo": {
            "about": "https://jobstream.api.jobtechdev.se/swagger.json",
            "title-sv": "Swagger gränsnitt",
            "description-sv": "Swagger gränsnitt för Job Stream API"
           }, 
          "page": {
            "about": "https://gitlab.com/arbetsformedlingen/job-ads/jobsearch-apis/-/blob/main/docs/GettingStartedJobStreamSE.md",
            "title-sv": "Kom igång med API:et",
            "title-en": "Get started",
            "description-sv": "Dokumentation för att komma igång med APIet",
            "description-en": "Documentation for using the API"
          }            
        }       
      },
      "dcat-dataservice": {
        "about": "https://jobsearch.api.jobtechdev.se/#dataservicePlatsannonser",
        "title-sv": "Datatjänst JobSearch",
        "description-sv": "API för jobbannonser publicerade i Arbetsförmedlingens tjänst Platsbanken",
        "title-en": "Data service JobSearch",
        "description-en": "API for job ads published in Arbetsförmedlingens Platsbanken",
        "endpointURL": "https://jobsearch.api.jobtechdev.se",
        
        "publisher": {
          "about": "https://jobsearch.api.jobtechdev.se/#publisherPlatsannonser2",
          "name": "Arbetsförmedlingen",
          "type": "NationalAuthority",
          "homepage": "https://arbetsformedlingen.se/om-webbplatsen/apier-och-oppna-data",
          "mbox": "opendata@arbetsformedlingen.se"
        },
        "contactPoint": {
          "about": "https://www.arbetsformedlingen.se/#contactPointPlatsannonser2",
          "type": "Organization",
          "name": "Arbetsförmedlingen",
          "email": "opendata@arbetsformedlingen.se",         
          "address": "Elektrogatan 4; 171 54; Solna; Sverige"
        },
        "type": "REST",
        "keyword-sv": "datatjänst",
        "theme": "http://publications.europa.eu/resource/authority/data-theme/GOVE",
       
        "servesDataset": "https://jobsearch.api.jobtechdev.se/#datasetJobsearch",
        "licenseurl": "http://creativecommons.org/publicdomain/zero/1.0/",
        "accessRights": "Public",
        "landingPage": "https://arbetsformedlingen.se/om-webbplatsen/apier-och-oppna-data"
        
      },
      "dcat-dataservice2": {
        "about": "https://jobstream.api.jobtechdev.se/#dataserviceJob_Stream",
        "title-sv": "Datatjänst jobstream",
        "description-sv": "API för jobbannonser publicerade i Arbetsförmedlingens tjänst Platsbanken",
        "title-en": "Data service jobstream",
        "description-en": "API for job ads published in Arbetsförmedlingens Platsbanken",
        "endpointURL": "https://jobstream.api.jobtechdev.se",
        
        "publisher": {
          "about": "https://jobstream.api.jobtechdev.se/#publisherJob_Stream2",
          "name": "Arbetsförmedlingen",
          "type": "NationalAuthority",
          "homepage": "https://arbetsformedlingen.se/om-webbplatsen/apier-och-oppna-data",
          "mbox": "opendata@arbetsformedlingen.se"
        },
        "contactPoint": {
          "about": "https://www.arbetsformedlingen.se/#contactPointJob_Stream2",
          "type": "Organization",
          "name": "Arbetsförmedlingen",
          "email": "opendata@arbetsformedlingen.se",         
          "address": "Elektrogatan 4; 171 54; Solna; Sverige"
        },
        "type": "REST",
        "keyword-sv": "datatjänst",
        "theme": "http://publications.europa.eu/resource/authority/data-theme/GOVE",
       
        "servesDataset": "https://jobstream.api.jobtechdev.se/#datasetJob_Stream",
        "licenseurl": "http://creativecommons.org/publicdomain/zero/1.0/",
        "accessRights": "Public",
        "landingPage": "https://arbetsformedlingen.se/om-webbplatsen/apier-och-oppna-data"
        
      }
           
      
    }
  },
  "paths": {
    "/users": {
      "get": {
        "description": "Fake API description. Only in this file to show where the rest of the api definition would be located.",
        "responses": {
          "200": {
            "description": "Fake 200 response"
          }
        }
      }
    }
  }
}
